{
    "status": "2",
    "subjects": [
        {
            "subject_id": "3",
            "subject_name": "Math",
            "sessions": [
                {
                    "progress_id": "1",
                    "class_session_id": "5",
                    "topic_name": "Trigonometry",
                    "class_focus ": "Learn about sine and cosine",
                    "topic_desc": "To get students to familiarize themselves with trigonometry",
                    "todo_desc": "To complete exercise 5 before next class",
                    "next_lesson_desc": "Learning calculus",
                    "next_milestone_desc": "Complete the calculus past year paper",
                    "admin_desc": "Remarks comment",
                    "progress_actual_score": "70",
                    "progress_careless_score": "20",
                    "progress_lesson": "G",
                    "progress_attitude": "G",
                    "progress_forgetfulness": "M",
                    "progress_speed": "A",
                    "progress_next_milestone": "M"
                }
            ],
            "exams": [
                {
                    "exam_id": "1",
                    "exam_name": "Mid Term Paper",
                    "exam_date": "2013-04-19"
                }
            ],
            "pacings": [
                {
                    "topic_id": "2",
                    "topic_name": "Calculus",
                    "pacing_value": "M"
                }
            ]
        }
    ]
}